# Fdb version 3
["pdflatex"] 1445045920 "/Users/fuzuohui/Desktop/PHD/15Fall/Biometrics/project2/biometrics-fall-2015-homework-2/report_latex/bare_jrnl.tex" "/Users/fuzuohui/Desktop/PHD/15Fall/Biometrics/project2/biometrics-fall-2015-homework-2/report_latex/bare_jrnl.pdf" "bare_jrnl" 1445045921
  "/Users/fuzuohui/Desktop/PHD/15Fall/Biometrics/project2/biometrics-fall-2015-homework-2/report_latex/bare_jrnl.aux" 1445045921 1176 2502df96aa563aca00b61d8b0756d4d9 ""
  "/Users/fuzuohui/Desktop/PHD/15Fall/Biometrics/project2/biometrics-fall-2015-homework-2/report_latex/bare_jrnl.tex" 1445045917 30378 b9daa52ae252d0e21a66f8a9a5190580 ""
  "/usr/local/texlive/2014/texmf-dist/fonts/enc/dvips/base/8r.enc" 1165713224 4850 80dc9bab7f31fb78a000ccfed0e27cab ""
  "/usr/local/texlive/2014/texmf-dist/fonts/map/fontname/texfonts.map" 1272929888 3287 e6b82fe08f5336d4d5ebc73fb1152e87 ""
  "/usr/local/texlive/2014/texmf-dist/fonts/tfm/adobe/times/ptmb7t.tfm" 1136768653 2172 fd0c924230362ff848a33632ed45dc23 ""
  "/usr/local/texlive/2014/texmf-dist/fonts/tfm/adobe/times/ptmb8r.tfm" 1136768653 4524 6bce29db5bc272ba5f332261583fee9c ""
  "/usr/local/texlive/2014/texmf-dist/fonts/tfm/adobe/times/ptmbi7t.tfm" 1136768653 2228 e564491c42a4540b5ebb710a75ff306c ""
  "/usr/local/texlive/2014/texmf-dist/fonts/tfm/adobe/times/ptmbi8r.tfm" 1136768653 4480 10409ed8bab5aea9ec9a78028b763919 ""
  "/usr/local/texlive/2014/texmf-dist/fonts/tfm/adobe/times/ptmr7t.tfm" 1136768653 2124 2601a75482e9426d33db523edf23570a ""
  "/usr/local/texlive/2014/texmf-dist/fonts/tfm/adobe/times/ptmr8r.tfm" 1136768653 4408 25b74d011a4c66b7f212c0cc3c90061b ""
  "/usr/local/texlive/2014/texmf-dist/fonts/tfm/adobe/times/ptmrc7t.tfm" 1136768653 2680 312a2d12b1f1df8ee0212e7ba1962402 ""
  "/usr/local/texlive/2014/texmf-dist/fonts/tfm/adobe/times/ptmri7t.tfm" 1136768653 2288 f478fc8fed18759effb59f3dad7f3084 ""
  "/usr/local/texlive/2014/texmf-dist/fonts/tfm/public/amsfonts/cmextra/cmbsy5.tfm" 1246382020 1120 1e8878807317373affa7f7bba4cf2f6a ""
  "/usr/local/texlive/2014/texmf-dist/fonts/tfm/public/amsfonts/cmextra/cmbsy7.tfm" 1246382020 1120 7f9f170e8aa57527ad6c49feafd45d54 ""
  "/usr/local/texlive/2014/texmf-dist/fonts/tfm/public/amsfonts/cmextra/cmex7.tfm" 1246382020 1004 54797486969f23fa377b128694d548df ""
  "/usr/local/texlive/2014/texmf-dist/fonts/tfm/public/amsfonts/cmextra/cmmib5.tfm" 1246382020 1496 c79f6914c6d39ffb3759967363d1be79 ""
  "/usr/local/texlive/2014/texmf-dist/fonts/tfm/public/amsfonts/cmextra/cmmib7.tfm" 1246382020 1508 6e807ff901c35a5f1fde0ca275533df8 ""
  "/usr/local/texlive/2014/texmf-dist/fonts/tfm/public/amsfonts/symbols/msam10.tfm" 1246382020 916 f87d7c45f9c908e672703b83b72241a3 ""
  "/usr/local/texlive/2014/texmf-dist/fonts/tfm/public/amsfonts/symbols/msam5.tfm" 1246382020 924 9904cf1d39e9767e7a3622f2a125a565 ""
  "/usr/local/texlive/2014/texmf-dist/fonts/tfm/public/amsfonts/symbols/msam7.tfm" 1246382020 928 2dc8d444221b7a635bb58038579b861a ""
  "/usr/local/texlive/2014/texmf-dist/fonts/tfm/public/amsfonts/symbols/msbm10.tfm" 1246382020 908 2921f8a10601f252058503cc6570e581 ""
  "/usr/local/texlive/2014/texmf-dist/fonts/tfm/public/amsfonts/symbols/msbm5.tfm" 1246382020 940 75ac932a52f80982a9f8ea75d03a34cf ""
  "/usr/local/texlive/2014/texmf-dist/fonts/tfm/public/amsfonts/symbols/msbm7.tfm" 1246382020 940 228d6584342e91276bf566bcf9716b83 ""
  "/usr/local/texlive/2014/texmf-dist/fonts/tfm/public/cm/cmbsy10.tfm" 1136768653 1116 4e6ba9d7914baa6482fd69f67d126380 ""
  "/usr/local/texlive/2014/texmf-dist/fonts/tfm/public/cm/cmbx10.tfm" 1136768653 1328 c834bbb027764024c09d3d2bf908b5f0 ""
  "/usr/local/texlive/2014/texmf-dist/fonts/tfm/public/cm/cmbx5.tfm" 1136768653 1332 f817c21a1ba54560425663374f1b651a ""
  "/usr/local/texlive/2014/texmf-dist/fonts/tfm/public/cm/cmbx7.tfm" 1136768653 1336 3125ccb448c1a09074e3aa4a9832f130 ""
  "/usr/local/texlive/2014/texmf-dist/fonts/tfm/public/cm/cmmib10.tfm" 1136768653 1524 554068197b70979a55370e6c6495f441 ""
  "/usr/local/texlive/2014/texmf-dist/fonts/tfm/public/rsfs/rsfs10.tfm" 1229303445 688 37338d6ab346c2f1466b29e195316aa4 ""
  "/usr/local/texlive/2014/texmf-dist/fonts/tfm/public/rsfs/rsfs5.tfm" 1229303445 684 3a51bd4fd9600428d5264cf25f04bb9a ""
  "/usr/local/texlive/2014/texmf-dist/fonts/tfm/public/rsfs/rsfs7.tfm" 1229303445 692 1b6510779f0f05e9cbf03e0f6c8361e6 ""
  "/usr/local/texlive/2014/texmf-dist/fonts/type1/public/amsfonts/cm/cmmi10.pfb" 1248133631 36299 5f9df58c2139e7edcf37c8fca4bd384d ""
  "/usr/local/texlive/2014/texmf-dist/fonts/type1/public/amsfonts/cm/cmr10.pfb" 1248133631 35752 024fb6c41858982481f6968b5fc26508 ""
  "/usr/local/texlive/2014/texmf-dist/fonts/type1/urw/times/utmb8a.pfb" 1136849748 44729 811d6c62865936705a31c797a1d5dada ""
  "/usr/local/texlive/2014/texmf-dist/fonts/type1/urw/times/utmbi8a.pfb" 1136849748 44656 0cbca70e0534538582128f6b54593cca ""
  "/usr/local/texlive/2014/texmf-dist/fonts/type1/urw/times/utmr8a.pfb" 1136849748 46026 6dab18b61c907687b520c72847215a68 ""
  "/usr/local/texlive/2014/texmf-dist/fonts/vf/adobe/times/ptmb7t.vf" 1136768653 1372 788387fea833ef5963f4c5bffe33eb89 ""
  "/usr/local/texlive/2014/texmf-dist/fonts/vf/adobe/times/ptmbi7t.vf" 1136768653 1384 6ac0f8b839230f5d9389287365b243c0 ""
  "/usr/local/texlive/2014/texmf-dist/fonts/vf/adobe/times/ptmr7t.vf" 1136768653 1380 0ea3a3370054be6da6acd929ec569f06 ""
  "/usr/local/texlive/2014/texmf-dist/fonts/vf/adobe/times/ptmrc7t.vf" 1136768653 1948 7330aeef3af211edff3b35fb2c12a0fd ""
  "/usr/local/texlive/2014/texmf-dist/tex/context/base/supp-pdf.mkii" 1337017135 71627 94eb9990bed73c364d7f53f960cc8c5b ""
  "/usr/local/texlive/2014/texmf-dist/tex/generic/oberdiek/etexcmds.sty" 1335995445 7612 c47308d923ec19888707b0f1792b326a ""
  "/usr/local/texlive/2014/texmf-dist/tex/generic/oberdiek/ifluatex.sty" 1303254447 7324 11d14f318d865f420e692d4e6c9c18c3 ""
  "/usr/local/texlive/2014/texmf-dist/tex/generic/oberdiek/ifpdf.sty" 1303254447 7140 ece2cc23d9f20e1f53975ac167f42d3e ""
  "/usr/local/texlive/2014/texmf-dist/tex/generic/oberdiek/infwarerr.sty" 1335995445 8253 3bdedc8409aa5d290a2339be6f09af03 ""
  "/usr/local/texlive/2014/texmf-dist/tex/generic/oberdiek/kvdefinekeys.sty" 1335995445 5152 387d9200f396b498d5fd679ae44ed898 ""
  "/usr/local/texlive/2014/texmf-dist/tex/generic/oberdiek/kvsetkeys.sty" 1335995445 14040 8de9f47fabc4ca3bd69b6d795e32751c ""
  "/usr/local/texlive/2014/texmf-dist/tex/generic/oberdiek/ltxcmds.sty" 1335995445 18425 775b341047ce304520cc7c11ca41392e ""
  "/usr/local/texlive/2014/texmf-dist/tex/generic/oberdiek/pdftexcmds.sty" 1335995445 19987 01cb2f3c1d21e5f05711b7fd50b17f2a ""
  "/usr/local/texlive/2014/texmf-dist/tex/latex/algorithms/algorithm.sty" 1251330371 3249 15763257e50278eef5db1952ccde229c ""
  "/usr/local/texlive/2014/texmf-dist/tex/latex/algorithms/algorithmic.sty" 1251330371 9318 793e9d5a71e74e730d97f6bf5d7e2bca ""
  "/usr/local/texlive/2014/texmf-dist/tex/latex/amscls/amsthm.sty" 1361575838 13294 f63af559496acbb4ffecc2de353745eb ""
  "/usr/local/texlive/2014/texmf-dist/tex/latex/amsfonts/amsfonts.sty" 1359763108 5949 3f3fd50a8cc94c3d4cbf4fc66cd3df1c ""
  "/usr/local/texlive/2014/texmf-dist/tex/latex/amsfonts/umsa.fd" 1359763108 961 6518c6525a34feb5e8250ffa91731cff ""
  "/usr/local/texlive/2014/texmf-dist/tex/latex/amsfonts/umsb.fd" 1359763108 961 d02606146ba5601b5645f987c92e6193 ""
  "/usr/local/texlive/2014/texmf-dist/tex/latex/amsmath/amsbsy.sty" 1362954379 2412 2d98314dc5be38f455f8890deeb2d091 ""
  "/usr/local/texlive/2014/texmf-dist/tex/latex/amsmath/amsgen.sty" 1362954379 4357 ad30ad08920902fc9b38caf35a3b0496 ""
  "/usr/local/texlive/2014/texmf-dist/tex/latex/amsmath/amsmath.sty" 1362954379 79178 b2e326c351e876df0e5e23df2e02441b ""
  "/usr/local/texlive/2014/texmf-dist/tex/latex/amsmath/amsopn.sty" 1362954379 4082 502152465aedb8f6a3c4b0b7c0fa8ae5 ""
  "/usr/local/texlive/2014/texmf-dist/tex/latex/amsmath/amstext.sty" 1362954379 2637 846ebe982d3549c7ede7ce135456f54a ""
  "/usr/local/texlive/2014/texmf-dist/tex/latex/base/ifthen.sty" 1399675188 4947 22c4b902063e8ce2efcc2a8495ecb800 ""
  "/usr/local/texlive/2014/texmf-dist/tex/latex/bbding/bbding.sty" 1220829924 7225 9b2f9a70c30e88d8bba0d20fcca8b94e ""
  "/usr/local/texlive/2014/texmf-dist/tex/latex/booktabs/booktabs.sty" 1211777752 6375 989ecfb545a13610facc71ae7e40ced1 ""
  "/usr/local/texlive/2014/texmf-dist/tex/latex/environ/environ.sty" 1399239813 4378 f429f0da968c278653359293040a8f52 ""
  "/usr/local/texlive/2014/texmf-dist/tex/latex/eqparbox/eqparbox.sty" 1363645995 8151 259dca322b32dea20d8171145310226a ""
  "/usr/local/texlive/2014/texmf-dist/tex/latex/float/float.sty" 1137110151 6749 16d2656a1984957e674b149555f1ea1d ""
  "/usr/local/texlive/2014/texmf-dist/tex/latex/graphics/graphics.sty" 1254151804 14183 42a8fc761b806986eef292369afc2988 ""
  "/usr/local/texlive/2014/texmf-dist/tex/latex/graphics/graphicx.sty" 1399675188 7911 bf0a64f89bfb668c239ddf6324bf4afb ""
  "/usr/local/texlive/2014/texmf-dist/tex/latex/graphics/keyval.sty" 1399675188 2317 0ace13e225e9d95dd9defe947adc9fbb ""
  "/usr/local/texlive/2014/texmf-dist/tex/latex/graphics/trig.sty" 1156702488 3153 c50e6bd54d2dd3933fc52bcf369bec4a ""
  "/usr/local/texlive/2014/texmf-dist/tex/latex/jknapltx/mathrsfs.sty" 1137110241 300 12fa6f636b617656f2810ee82cb05015 ""
  "/usr/local/texlive/2014/texmf-dist/tex/latex/jknapltx/ursfs.fd" 1137110241 548 cc4e3557704bfed27c7002773fad6c90 ""
  "/usr/local/texlive/2014/texmf-dist/tex/latex/latexconfig/epstopdf-sys.cfg" 1279039959 678 4792914a8f45be57bb98413425e4c7af ""
  "/usr/local/texlive/2014/texmf-dist/tex/latex/latexconfig/graphics.cfg" 1278958963 3563 d35e897cae3b8c6848f6677b73370b54 ""
  "/usr/local/texlive/2014/texmf-dist/tex/latex/multirow/multirow.sty" 1137110401 7374 f7c1f13fc632dd5c9b220a247d233082 ""
  "/usr/local/texlive/2014/texmf-dist/tex/latex/oberdiek/epstopdf-base.sty" 1303254447 12029 04d7fdf76e0464c23b5aa3a727952d7c ""
  "/usr/local/texlive/2014/texmf-dist/tex/latex/oberdiek/grfext.sty" 1335995445 7075 bd0c34fbf1ae8fd1debd2a554e41b2d5 ""
  "/usr/local/texlive/2014/texmf-dist/tex/latex/oberdiek/kvoptions.sty" 1335995445 22417 c74ff4af6a1aa2b65d1924020edbbe11 ""
  "/usr/local/texlive/2014/texmf-dist/tex/latex/pdftex-def/pdftex.def" 1306616590 55368 3c8a0d99822330f2dfabc0dfb09ce897 ""
  "/usr/local/texlive/2014/texmf-dist/tex/latex/psnfss/ot1ptm.fd" 1137110629 961 15056f4a61917ceed3a44e4ac11fcc52 ""
  "/usr/local/texlive/2014/texmf-dist/tex/latex/sttools/stfloats.sty" 1350599623 8201 38e0393c062a9ffab7a69eed69da7898 ""
  "/usr/local/texlive/2014/texmf-dist/tex/latex/subfigure/subfigure.cfg" 1167176009 2062 a0e7d66e09e508f51289a656aec06ed2 ""
  "/usr/local/texlive/2014/texmf-dist/tex/latex/subfigure/subfigure.sty" 1167176009 15188 91281c7ddbccfa54a8e0c3b56ab5aa72 ""
  "/usr/local/texlive/2014/texmf-dist/tex/latex/tools/array.sty" 1399675188 13073 a6e28ede26c83d406e124b12f368174f ""
  "/usr/local/texlive/2014/texmf-dist/tex/latex/tools/bm.sty" 1399675188 11750 368cac70e513c0886fa591ef7d7afab7 ""
  "/usr/local/texlive/2014/texmf-dist/tex/latex/trimspaces/trimspaces.sty" 1253232110 1380 971a51b00a14503ddf754cab24c3f209 ""
  "/usr/local/texlive/2014/texmf-dist/tex/latex/url/url.sty" 1388531844 12796 8edb7d69a20b857904dd0ea757c14ec9 ""
  "/usr/local/texlive/2014/texmf-dist/web2c/texmf.cnf" 1398200874 31722 4f52421e59a4b9e910cf18e64c1f2b4a ""
  "/usr/local/texlive/2014/texmf-var/fonts/map/pdftex/updmap/pdftex.map" 1401025944 1445653 26a0aacf3d70032b1ec192e8c7792117 ""
  "/usr/local/texlive/2014/texmf-var/web2c/pdftex/pdflatex.fmt" 1401025990 3832012 904d82bdcc8abf2b1cd296990b82553b ""
  "/usr/local/texlive/2014/texmf.cnf" 1401025936 577 a59edbde8d3a8c549d0eeaab1739e2ff ""
  "11.jpg" 1191707366 11418 974b7b2f5b5ae673a42b0a97fb439347 ""
  "12.jpg" 1191707560 14524 90f2dc555a550e7a1c51baa83e54ea02 ""
  "13.jpg" 1191707416 10314 d5a1ef91ecc2385f99985c31f6774170 ""
  "14.jpg" 1191707703 13525 6b30d900420f8f24205196a78310fa7d ""
  "15.jpg" 1191706961 12894 b038c9baf053333143c6a9852a2c4e6f ""
  "16.jpg" 1191707677 14964 e57c63f1688ac988acfb0ad76da3226c ""
  "17.jpg" 1191707119 14877 1e73f6eac40bf4cb82e14c4601448a2b ""
  "18.jpg" 1191707306 11139 5178b5592b4856fe59c107ceaa1b942c ""
  "19.jpg" 1220352154 8015 53f41f7841f016ac44754a6c4cf84bb0 ""
  "20.jpg" 1220352614 8527 3086fda1cda3f829c6ff6bdd468f2577 ""
  "21.jpg" 1220352158 10318 9ba56ae01b7f17b037ac0db2a9592448 ""
  "22.jpg" 1220353700 6430 c9e93aac1118922483163809ca3e5c08 ""
  "23.jpg" 1220353000 7081 f7ca4fe77b9f93f13a45675557fce816 ""
  "24.jpg" 1220353000 8548 201f02d0440be777d4573063db97b58b ""
  "25.jpg" 1220353012 6975 8d13896be9d7df362f0f6540cd0536f8 ""
  "26.jpg" 1220353012 6982 1fd1342ff1b8efbd1899f56afafdc96b ""
  "IEEEtran.cls" 1410965330 282417 954051ae67e6fc3fdfba307b2233a8fe ""
  "bare_jrnl.aux" 1445045921 1176 2502df96aa563aca00b61d8b0756d4d9 ""
  "bare_jrnl.tex" 1445045917 30378 b9daa52ae252d0e21a66f8a9a5190580 ""
  "fig1.png" 1444974064 29118 193cef606a8a100c67708aa4d4509ab3 ""
  "fig2.png" 1444974065 36543 7e8e4704b25dd72aec9348e974e00523 ""
  (generated)
  "bare_jrnl.log"
  "bare_jrnl.aux"
  "/Users/fuzuohui/Desktop/report/IEEEtran/bare_jrnl.pdf"
  "/Users/fuzuohui/Downloads/IEEEtran/bare_jrnl.log"
  "/Users/fuzuohui/Downloads/IEEEtran/bare_jrnl.pdf"
  "/Users/fuzuohui/Desktop/PHD/15Fall/Biometrics/project2/biometrics-fall-2015-homework-2/report_latex/bare_jrnl.log"
  "/Users/fuzuohui/Desktop/report/IEEEtran/bare_jrnl.log"
  "/Users/fuzuohui/Desktop/PHD/15Fall/Biometrics/project1/hw1/report/report_latex/bare_jrnl.pdf"
  "/Users/fuzuohui/Desktop/PHD/15Fall/Biometrics/project2/biometrics-fall-2015-homework-2/report_latex/bare_jrnl.pdf"
  "/Users/fuzuohui/Desktop/PHD/15Fall/Biometrics/project1/hw1/report/report_latex/bare_jrnl.log"
  "bare_jrnl.pdf"
