0.495125 1815
0.478407 848
0.462549 471
0.448565 286
0.436229 189
0.425867 139
0.415954 110
0.405747 84
0.393653 61
0.380889 48
0.367672 33
0.358635 28
0.348964 21
0.338333 13
0.329271 11
0.318413 8
0.306487 8
0.294187 7
0.282617 6
0.272638 6
0.261217 4
0.250979 4
0.240654 2
0.230454 2
0.22105 2
0.211328 2
0.201652 2
0.19101 1
0.18162 1
0.172044 1
0.163563 1
0.152798 1
0.14586 1
0.13659 1
0.126825 0
0.117045 0
0.109048 0
0.103344 0
0.0972313 0
0.0887503 0
0.082505 0
0.0776982 0
0.0724173 0
0.0665282 0
0.0613429 0
0.0567579 0
0.0525115 0
0.0479013 0
0.0438199 0
0.0402445 0
0.0375083 0
0.0340737 0
0.0301702 0
0.0267239 0
0.0239407 0
0.0213411 0
0.0188363 0
0.0167249 0
0.0141389 0
0.0128931 0
0.0111076 0
0.00955307 0
0.00884308 0
0.00743494 0
0.00626894 0
0.00539275 0
0.00473817 0
0.00423243 0
0.00347128 0
0.00292525 0
0.00188617 0
0.00152599 0
0.0011577 0
0.00103248 0
0.00091512 0
0.000665111 0
0.000406707 0
0.000273852 0
0.000137221 0
0 0
